{
    "txt_name": "node0",
    "jso_coresan":{
        "txt_username": "admin",
        "txt_password": "12345678",
    
        "txt_protocol": "http",
        "txt_host": "localhost",
        "int_port": 8765
    }
}